<svg xmlns="http://www.w3.org/2000/svg" width="111.135" height="21.503" viewBox="0 0 111.135 21.503">
  <g id="logo" transform="translate(-0.802)">
    <path id="Caminho_4309" data-name="Caminho 4309" d="M66.527,13.515l-.518.728,1.373.3.741,1.278.522-.732-.737-1.271Z" transform="translate(-37.139 -7.697)" fill="#373643"/>
    <path id="Caminho_4310" data-name="Caminho 4310" d="M64.542,16.239l-.552.776,1.4.306.726,1.255.538-.756-.745-1.284Z" transform="translate(-35.989 -9.249)" fill="#373643"/>
    <path id="Caminho_4311" data-name="Caminho 4311" d="M61.146,1.068V0l-15.5.03-.041,2.314H57.38L55.224,5.372l1.388.3.733,1.266,3.5-4.922A1.722,1.722,0,0,0,61.146,1.068Z" transform="translate(-25.519)" fill="#373643"/>
    <path id="Caminho_4312" data-name="Caminho 4312" d="M9.477,18.968a5.934,5.934,0,0,0,2.359-.445,4.951,4.951,0,0,0,1.757-1.247,5.462,5.462,0,0,0,1.1-1.913,7.578,7.578,0,0,0,.378-2.446l.061-10.469L17.931,0V12.919a9.712,9.712,0,0,1-.585,3.41,7.956,7.956,0,0,1-1.675,2.721,7.667,7.667,0,0,1-2.663,1.8,9.111,9.111,0,0,1-3.528.653,9.1,9.1,0,0,1-3.528-.653,7.712,7.712,0,0,1-2.672-1.8A7.853,7.853,0,0,1,1.6,16.329a9.679,9.679,0,0,1-.585-3.41L.8,0h3.07V12.9A7.581,7.581,0,0,0,4.25,15.35a5.438,5.438,0,0,0,1.1,1.913,5,5,0,0,0,1.765,1.253A5.87,5.87,0,0,0,9.477,18.968Z" transform="translate(0 -0.001)" fill="#373643"/>
    <path id="Caminho_4313" data-name="Caminho 4313" d="M187.93,4.717c-.1-.257-.2-.557-.312-.9s-.213-.7-.312-1.091a16.2,16.2,0,0,1-.637,2l-6.124,15.837a1.061,1.061,0,0,1-.341.475.956.956,0,0,1-.623.207h-2.224L185.854,0h2.908l8.5,21.251h-2.224a.965.965,0,0,1-.623-.192,1.178,1.178,0,0,1-.355-.49Z" transform="translate(-100.558)" fill="#373643"/>
    <path id="Caminho_4314" data-name="Caminho 4314" d="M19.832,24.051a2.675,2.675,0,1,1-2.675-2.675A2.675,2.675,0,0,1,19.832,24.051Z" transform="translate(-7.792 -12.175)" fill="#47bc93"/>
    <path id="Caminho_4315" data-name="Caminho 4315" d="M63.414,21.9l.9-1.263-.73-1.261-1.393-.3-.8,1.128A3.34,3.34,0,0,1,63.414,21.9Z" transform="translate(-34.507 -10.865)" fill="#373643"/>
    <path id="Caminho_4316" data-name="Caminho 4316" d="M57.936,38.06l-9.862-.015,2.194-3.081A3.325,3.325,0,0,1,48,33.6l-3.428,4.815a2.545,2.545,0,0,0-.2.4,1.231,1.231,0,0,0-.082.445v1.127H60.218Z" transform="translate(-24.77 -19.138)" fill="#373643"/>
    <path id="Caminho_4317" data-name="Caminho 4317" d="M58.182,24.7a2.675,2.675,0,0,0-1.991-1.751,2.615,2.615,0,0,0-.538-.054,2.675,2.675,0,0,0,0,5.35h0A2.675,2.675,0,0,0,58.182,24.7Z" transform="translate(-29.718 -13.04)" fill="#47bc93"/>
    <path id="Caminho_4318" data-name="Caminho 4318" d="M105.846,15.45l-.553.777,1.455.316.7,1.2.536-.755-.715-1.233Z" transform="translate(-59.513 -8.8)" fill="#373643"/>
    <path id="Caminho_4319" data-name="Caminho 4319" d="M107.831,12.726l-.517.728,1.429.31.712,1.228.521-.732-.708-1.222Z" transform="translate(-60.665 -7.248)" fill="#373643"/>
    <path id="Caminho_4320" data-name="Caminho 4320" d="M101.887,1.068V0L86.4.03l-.053,2.314H98.12L96.207,5.032l1.444.314.7,1.215,3.235-4.544A1.73,1.73,0,0,0,101.887,1.068Z" transform="translate(-48.723)" fill="#373643"/>
    <path id="Caminho_4321" data-name="Caminho 4321" d="M104.608,20.973l.823-1.157-.7-1.211-1.448-.315-.963,1.353A3.328,3.328,0,0,1,104.608,20.973Z" transform="translate(-57.819 -10.417)" fill="#373643"/>
    <path id="Caminho_4322" data-name="Caminho 4322" d="M98.679,37.408l-9.861-.015,2.278-3.2a3.348,3.348,0,0,1-2-1.736l-3.777,5.307a2.63,2.63,0,0,0-.2.4,1.231,1.231,0,0,0-.082.445v1.127h15.927Z" transform="translate(-47.975 -18.486)" fill="#373643"/>
    <path id="Caminho_4323" data-name="Caminho 4323" d="M100.16,24.161A2.671,2.671,0,0,0,97.889,22.9c-.023,0-.045,0-.067,0a2.672,2.672,0,0,0-.521,5.278,2.733,2.733,0,0,0,.589.068,2.67,2.67,0,0,0,2.27-4.084Z" transform="translate(-53.773 -13.04)" fill="#47bc93"/>
    <path id="Caminho_4324" data-name="Caminho 4324" d="M131.745,36.063v5.728l2.891-2.565,0-3.161a3.291,3.291,0,0,1-2.89,0Z" transform="translate(-74.579 -20.54)" fill="#373643"/>
    <path id="Caminho_4325" data-name="Caminho 4325" d="M134.632,9.533,134.624,0h-2.876V9.536a3.294,3.294,0,0,1,2.884,0Z" transform="translate(-74.581)" fill="#373643"/>
    <path id="Caminho_4326" data-name="Caminho 4326" d="M147.916,35.883v5.8l2.877-2.7-.008-2.946a3.325,3.325,0,0,1-2.869-.159Z" transform="translate(-83.79 -20.437)" fill="#373643"/>
    <path id="Caminho_4327" data-name="Caminho 4327" d="M161.625,3.871a5.346,5.346,0,0,0-1.46-2.075A6.737,6.737,0,0,0,157.7.467,11.781,11.781,0,0,0,154.189,0h-6.273V9.613a3.308,3.308,0,0,1,2.862-.162V2.27h3.41a5.49,5.49,0,0,1,3.8,1.141,4.077,4.077,0,0,1,1.254,3.174,4.805,4.805,0,0,1-.326,1.794,3.775,3.775,0,0,1-.971,1.4,4.507,4.507,0,0,1-1.586.911,6.633,6.633,0,0,1-2.173.327H152.48a3.288,3.288,0,0,1,.367,1.511,3.341,3.341,0,0,1-.094.772h1.436a10.63,10.63,0,0,0,3.4-.5,7.071,7.071,0,0,0,2.477-1.386A5.848,5.848,0,0,0,161.59,9.3a6.918,6.918,0,0,0,.518-2.713A7.315,7.315,0,0,0,161.625,3.871Z" transform="translate(-83.79 0)" fill="#373643"/>
    <path id="Caminho_4328" data-name="Caminho 4328" d="M133,23.317a2.67,2.67,0,1,0,1.236,2.253A2.66,2.66,0,0,0,133,23.317Z" transform="translate(-72.953 -13.039)" fill="#47bc93"/>
    <path id="Caminho_4329" data-name="Caminho 4329" d="M150.3,24.058a2.663,2.663,0,1,0,.469,1.51A2.67,2.67,0,0,0,150.3,24.058Z" transform="translate(-82.37 -13.039)" fill="#47bc93"/>
    <path id="Caminho_4330" data-name="Caminho 4330" d="M199.608,25.569a2.675,2.675,0,1,1-2.675-2.675A2.675,2.675,0,0,1,199.608,25.569Z" transform="translate(-110.184 -13.039)" fill="#47bc93"/>
    <path id="Caminho_4331" data-name="Caminho 4331" d="M224.683,9.27l-.173-.341L219.646.669a1.668,1.668,0,0,0-.386-.482A.923.923,0,0,0,218.652,0H216.13l6.483,10.645A3.339,3.339,0,0,1,224.683,9.27Z" transform="translate(-122.641 -0.001)" fill="#373643"/>
    <path id="Caminho_4332" data-name="Caminho 4332" d="M234.219,36.071V41.8l2.8-2.239.041-3.47a3.288,3.288,0,0,1-2.844-.016Z" transform="translate(-132.944 -20.544)" fill="#373643"/>
    <path id="Caminho_4333" data-name="Caminho 4333" d="M241.219,10.645,247.7,0h-2.536a.891.891,0,0,0-.609.208,1.649,1.649,0,0,0-.371.46l-4.849,8.261c-.058.119-.111.232-.166.347A3.327,3.327,0,0,1,241.219,10.645Z" transform="translate(-135.765)" fill="#373643"/>
    <path id="Caminho_4334" data-name="Caminho 4334" d="M236.383,24.312a2.671,2.671,0,0,0-1.955-1.382,2.639,2.639,0,0,0-.4-.034,2.848,2.848,0,0,0-.364.027,2.674,2.674,0,1,0,2.723,1.389Z" transform="translate(-131.31 -13.04)" fill="#47bc93"/>
  </g>
</svg>
